{
  "4ge.it": {
    "account": "4geit",
    "domainid": "833372",
    "zonefile": "./zones/4ge.it.zone"
  },
  "flbf.org": {
    "account": "4geit",
    "domainid": "552034",
    "zonefile": "./zones/flbf.org.zone"
  },
  "happy-ending.org": {
    "account": "4geit",
    "domainid": "749516",
    "zonefile": "./zones/happy-ending.org.zone"
  },
  "vegeclic.fr": {
    "account": "4geit",
    "domainid": "638459",
    "zonefile": "./zones/vegeclic.fr.zone"
  }
}
